Introdução à Ciência dos Dados - Soluções Aulas 1 e 2
…
last > 15 & last <= 20

## [1] FALSE

Desafio 2

Escreva um único comando (que pode abranger várias linhas e inclui pipes) que produzirá uma data.frame que tenha os valores dos países africanos para lifeExp, country e year, mas não para outros países e continentes.

dados_africa <- gapminder %>%
  filter(continent == "Africa") %>%
  select(lifeExp, country, year)
dados_africa

## # A tibble: 624 x 3
##    lifeExp country  year
##      <dbl> <fct>   <int>
##  1    43.1 Algeria  1952
##  2    45.7 Algeria  1957
##  3    48.3 Algeria  1962
##  4    51.4 Algeria  1967
##  5    54.5 Algeria  1972
##  6    58.0 Algeria  1977
##  7    61.4 Algeria  1982
##  8    65.8 Algeria  1987
##  9    67.7 Algeria  1992
## 10    69.2 Algeria  1997
## # ... with 614 more rows

Desafio 3

Calcule a esperança média de vida por país.

## esperanca media de vida por pais
lifexp_pais_maior <- gapminder %>%
   group_by(country) %>%
   summarize(lifeExp_media = mean(lifeExp))
lifexp_pais_maior

## # A tibble: 142 x 2
##    country     lifeExp_media
##    <fct>               <dbl>
##  1 Afghanistan          37.5
##  2 Albania              68.4
##  3 Algeria              59.0
##  4 Angola               37.9
##  5 Argentina            69.1
##  6 Australia            74.7
##  7 Austria              73.1
##  8 Bahrain              65.6
##  9 Bangladesh           49.8
## 10 Belgium              73.6
## # ... with 132 more rows
…
Desafio 4: Solução

Calcule a Expectativa de vida média para cada país no ano 2002 e ordene a expecativa média em ordem crescente.

## 2. Por paises em 2002
lifexp_paises <- gapminder %>%
   filter(year==2002) %>%
   group_by(country) %>%
   summarize(lifeExp_media = mean(lifeExp)) %>%
   arrange(desc(lifeExp_media))
lifexp_paises

## # A tibble: 142 x 2
##    country          lifeExp_media
##    <fct>                    <dbl>
##  1 Japan                     82  
##  2 Hong Kong, China          81.5
##  3 Switzerland               80.6
##  4 Iceland                   80.5
##  5 Australia                 80.4
##  6 Italy                     80.2
##  7 Sweden                    80.0
##  8 Spain                     79.8
##  9 Canada                    79.8
## 10 Israel                    79.7
## # ... with 132 more rows
