Aula 10 - Introdução à Ciência dos Dados
…
Usando a função predict() podemos obter previsões para
os dados de teste a partir do modelo estimado com os dados para
treinamento.

O código a seguir, além de obter as previsões para os dados de teste,
funde as previsões com os dados de teste:

resultado_reglin <- reg_fit |>
  predict(boston_test) |>
  bind_cols(boston_test) |>
  rename(.pred_lm = .pred)

resultado_reglin |> dplyr::select(medv, .pred_lm)

## # A tibble: 128 × 2
##     medv .pred_lm
##    <dbl>    <dbl>
##  1  21.6     25.1
##  2  36.2     28.0
##  3  22.9     22.7
##  4  27.1     18.6
##  5  21.7     20.6
##  6  20.4     19.6
##  7  13.6     11.9
##  8  14.5     13.2
##  9  14.8     14.2
## 10  12.7     10.7
## # ℹ 118 more rows
…
# Treina um modelo random forest 
rf_mod <- rf_spec |> 
  fit(medv ~ ., data = boston_train)

Avaliação da capacidade preditiva do modelo Random Forest

rf_testfit <- rf_mod |>
  predict(boston_test) |>
  bind_cols(boston_test)

rf_testfit |> dplyr::select(medv, .pred)

## # A tibble: 128 × 2
##     medv .pred
##    <dbl> <dbl>
##  1  21.6  23.2
##  2  36.2  32.8
##  3  22.9  20.1
##  4  27.1  17.6
##  5  21.7  20.1
##  6  20.4  20.4
##  7  13.6  15.1
##  8  14.5  15.7
##  9  14.8  15.6
## 10  12.7  14.8
## # ℹ 118 more rows
…
